com\mfs\orchrestator\utiliy\ResponseUtily.class
com\mfs\orchrestator\config\AppConfig.class
com\mfs\orchrestator\controller\AccHolderController.class
com\mfs\orchrestator\generator\CustomGenerator.class
com\mfs\orchrestator\repo\AccHolderRepoImpl.class
com\mfs\orchrestator\exception\CustomExceptionHandler.class
com\mfs\orchrestator\service\AccHolderService.class
com\mfs\orchrestator\exception\ErrorResponse.class
com\mfs\orchrestator\config\MyWebAppInitializer.class
com\mfs\orchrestator\repo\AccHolderRepo.class
com\mfs\orchrestator\service\AccHolderServiceImpl.class
com\mfs\orchrestator\config\WebConfig.class
com\mfs\orchrestator\contstants\CommonConstants.class
com\mfs\orchrestator\entity\AccHolderInfo.class
